%!PS-Adobe-2.0 EPSF-1.2
%%Title: a-es2.eps
%%Creator: vim
%%%BoundingBox: 0 0 367 224
%%BoundingBox: 76 29  360 120
%%EndComments

save
100 dict begin

/bdef {bind def} bind def
/xdef {exch def} bdef
/m {moveto} bdef
/l {lineto} bdef
/rm {rmoveto} bdef
/rl {rlineto} bdef
/c {curveto} bdef
/np {newpath} bdef
/cmyk {setcmykcolor} bdef
/gray {setgray} bdef
/ef {eofill} bdef
/gs {gsave} bdef
/gr {grestore} bdef
/ln {setlinewidth stroke} bdef
/freq {currentscreen 4 -2 roll pop 3 1 roll setscreen} bdef
systemdict /setcmykcolor known not
   {/setcmykcolor
     {
      3 {dup 3 2 roll 1 exch sub exch sub dup 0 lt{pop 0}if 4 1 roll } repeat
      pop setrgbcolor
     }bdef
   }if

%%EndProlog

0.060 0.060 scale

np
 4 1212 m
 4 1212 4 1212 4 1212 c
 4 1197 9 1163 14 1143 c
 14 1134 19 1109 24 1094 c
 29 1075 44 1030 55 1006 c
 55 1000 59 996 64 985 c
 85 931 120 809 145 750 c
 145 744 151 739 155 729 c
 160 710 175 666 186 641 c
 216 576 282 448 317 385 c
 317 379 332 364 337 355 c
 363 311 407 207 438 158 c
 448 133 488 83 509 59 c
 509 54 519 45 529 39 c
 534 35 554 15 569 10 c
 579 5 604 5 619 0 c
 630 0 655 0 670 0 c
 685 5 715 10 731 10 c
 735 15 751 24 761 30 c
 766 39 776 59 781 69 c
 781 114 781 198 781 236 c
 776 257 770 281 770 295 c
 766 316 761 350 761 364 c
 756 385 751 410 751 424 c
 746 444 741 478 741 492 c
 735 528 720 582 720 611 c
 715 631 711 666 711 681 c
 706 700 700 725 700 739 c
 695 764 691 813 691 838 c
 685 868 680 927 680 956 c
 670 1021 665 1153 660 1212 c
 655 1247 650 1302 650 1331 c
 645 1390 645 1503 650 1558 c
 650 1636 655 1784 660 1854 c
 660 1917 665 2041 670 2100 c
 670 2159 675 2267 680 2316 c
 680 2370 685 2475 691 2523 c
 691 2548 685 2603 691 2622 c
 691 2627 695 2632 700 2632 c
 700 2622 706 2597 711 2582 c
 715 2548 726 2469 731 2425 c
 731 2406 735 2361 741 2336 c
 746 2277 761 2159 770 2100 c
 770 2085 776 2051 781 2030 c
 781 2007 796 1961 801 1932 c
 801 1923 807 1888 811 1873 c
 822 1799 857 1656 872 1577 c
 872 1567 877 1533 882 1518 c
 887 1484 902 1409 912 1371 c
 917 1340 932 1281 943 1252 c
 943 1247 947 1232 953 1222 c
 953 1218 958 1193 963 1183 c
 963 1178 967 1163 973 1153 c
 978 1138 982 1094 993 1075 c
 993 1069 998 1055 1003 1044 c
 1003 1040 1008 1015 1013 1006 c
 1013 1000 1019 985 1023 976 c
 1028 962 1033 916 1043 897 c
 1043 892 1048 878 1054 868 c
 1054 863 1059 838 1063 828 c
 1063 823 1069 809 1074 798 c
 1079 784 1084 739 1094 719 c
 1094 715 1098 700 1104 690 c
 1104 685 1109 660 1114 651 c
 1114 645 1119 631 1124 622 c
 1124 616 1129 591 1135 582 c
 1135 576 1139 562 1144 552 c
 1144 547 1150 523 1155 513 c
 1155 507 1159 492 1164 483 c
 1170 463 1190 424 1205 404 c
 1205 399 1215 385 1225 375 c
 1240 360 1281 320 1306 316 c
 1351 305 1457 316 1507 316 c
 1507 320 1513 335 1518 335 c
 1518 345 1533 360 1538 364 c
 1542 375 1553 394 1558 404 c
 1558 419 1563 448 1568 463 c
 1568 538 1568 681 1568 750 c
 1563 872 1558 1109 1558 1222 c
 1553 1287 1548 1409 1548 1468 c
 1548 1474 1553 1478 1558 1478 c
 1558 1468 1563 1454 1568 1439 c
 1568 1424 1573 1390 1579 1371 c
 1579 1355 1583 1331 1588 1311 c
 1594 1281 1599 1208 1608 1174 c
 1608 1159 1614 1134 1619 1114 c
 1623 1084 1629 1010 1638 976 c
 1638 962 1644 937 1649 916 c
 1654 887 1659 813 1669 779 c
 1669 764 1674 739 1679 719 c
 1684 690 1689 616 1699 582 c
 1699 567 1704 542 1710 523 c
 1710 507 1715 473 1719 454 c
 1719 444 1725 419 1730 404 c
 1730 399 1734 385 1739 375 c
 1739 370 1745 345 1750 335 c
 1750 330 1754 316 1760 305 c
 1760 301 1765 291 1770 286 c
 1785 276 1820 251 1841 236 c
 1841 236 1856 236 1861 236 c
 1881 242 1922 251 1942 257 c
 1946 261 1966 281 1972 286 c
 1977 301 1977 330 1982 345 c
 1982 439 1982 622 1982 710 c
 1977 868 1966 1174 1962 1321 c
 1957 1365 1951 1439 1951 1478 c
 1951 1484 1957 1489 1962 1489 c
 1962 1468 1966 1434 1972 1409 c
 1982 1242 2007 892 2023 719 c
 2023 704 2023 670 2032 651 c
 2038 641 2058 616 2073 611 c
 2088 606 2133 611 2154 611 c
 2158 616 2174 626 2184 631 c
 2184 641 2189 656 2194 660 c
 2194 670 2198 690 2204 700 c
 2204 715 2209 739 2214 750 c
 2214 764 2219 779 2224 788 c
 2224 818 2229 878 2235 907 c
 2239 1040 2255 1306 2264 1439 c
 2264 1464 2259 1508 2264 1528 c
 2264 1533 2270 1537 2274 1537 c
 2274 1523 2279 1499 2285 1478 c
 2290 1424 2294 1302 2305 1242 c
 2305 1218 2310 1163 2314 1134 c
 2320 1050 2335 868 2345 779 c
 2345 764 2345 729 2355 710 c
 2355 700 2375 681 2386 670 c
 2386 666 2395 656 2406 651 c
 2446 651 2532 651 2577 651 c
 2577 656 2582 660 2587 660 c
 2592 675 2613 704 2618 719 c
 2622 739 2622 779 2628 798 c
 2628 848 2633 947 2638 996 c
 2638 1065 2642 1203 2648 1272 c
 2648 1306 2642 1371 2648 1400 c
 2648 1405 2653 1409 2658 1409 c
 2658 1371 2663 1296 2668 1252 c
 2668 1183 2673 1030 2679 956 c
 2679 912 2683 823 2688 779 c
 2688 764 2694 735 2698 719 c
 2698 710 2703 685 2708 670 c
 2708 666 2714 645 2718 641 c
 2729 631 2759 606 2779 601 c
 2804 597 2870 597 2900 601 c
 2910 606 2935 626 2950 631 c
 2956 636 2966 645 2970 651 c
 2976 670 2986 704 2991 719 c
 2991 754 2996 828 3001 857 c
 3001 892 3006 956 3011 985 c
 3011 1021 3016 1094 3022 1124 c
 3022 1159 3026 1222 3031 1252 c
 3031 1287 3036 1361 3042 1390 c
 3042 1424 3046 1489 3051 1518 c
 3051 1552 3057 1627 3062 1656 c
 3062 1690 3066 1755 3072 1784 c
 3072 1818 3077 1892 3082 1923 c
 3082 1957 3086 2021 3092 2051 c
 3092 2085 3097 2154 3102 2188 c
 3102 2203 3097 2238 3102 2248 c
 3102 2253 3107 2257 3112 2257 c
 3112 2253 3117 2238 3122 2228 c
 3138 2129 3173 1917 3193 1814 c
 3193 1804 3198 1779 3203 1764 c
 3218 1680 3243 1499 3263 1409 c
 3263 1400 3269 1375 3274 1361 c
 3289 1262 3324 1050 3344 947 c
 3344 927 3354 887 3364 868 c
 3364 863 3370 848 3374 838 c
 3374 834 3379 809 3385 798 c
 3385 794 3390 779 3394 769 c
 3400 754 3405 710 3414 690 c
 3414 685 3420 670 3425 660 c
 3425 656 3430 631 3435 622 c
 3435 616 3440 601 3445 591 c
 3445 587 3450 562 3455 552 c
 3455 547 3460 532 3466 523 c
 3470 503 3490 463 3506 444 c
 3506 439 3526 439 3536 434 c
 3566 434 3632 429 3667 434 c
 3677 439 3713 473 3718 483 c
 3722 532 3718 626 3718 670 c
 3707 843 3682 1174 3677 1340 c
 3672 1424 3672 1597 3677 1676 c
 3677 1749 3682 1888 3687 1952 c
 3687 1976 3692 2016 3698 2030 c
 3698 2051 3702 2085 3707 2100 c
 3707 2120 3713 2164 3718 2179 c
 3718 2217 3733 2282 3738 2316 c
 3738 2336 3742 2381 3748 2395 c
 3748 2415 3753 2450 3758 2464 c
 3758 2484 3763 2523 3768 2544 c
 3768 2553 3763 2568 3768 2573 c
 3768 2578 3773 2582 3778 2582 c
 3778 2553 3783 2489 3788 2454 c
 3794 2282 3808 1923 3818 1745 c
 3818 1711 3823 1642 3829 1607 c
 3829 1597 3834 1572 3838 1558 c
 3838 1548 3844 1533 3849 1518 c
 3854 1484 3869 1409 3879 1371 c
 3879 1361 3884 1346 3889 1331 c
 3894 1311 3899 1256 3910 1232 c
 3910 1222 3914 1208 3919 1193 c
 3930 1149 3950 1050 3960 996 c
 3960 985 3965 951 3970 937 c
 3975 902 3989 828 4000 788 c
 4000 779 4005 759 4010 750 c
 4020 725 4041 675 4061 651 c
 4066 645 4096 636 4111 631 c
 4121 631 4146 631 4162 631 c
 4172 636 4197 641 4212 641 c
 4217 645 4227 651 4232 651 c
 4238 656 4247 666 4252 670 c
 4258 681 4267 695 4273 700 c
 4278 719 4288 759 4293 779 c
 4293 798 4298 838 4303 857 c
 4308 907 4317 1006 4323 1055 c
 4323 1084 4328 1138 4333 1163 c
 4333 1218 4348 1311 4354 1361 c
 4354 1390 4358 1444 4363 1468 c
 4363 1523 4378 1617 4383 1666 c
 4383 1680 4378 1705 4383 1715 c
 4383 1720 4389 1725 4394 1725 c
 4394 1715 4398 1690 4404 1676 c
 4404 1656 4409 1612 4413 1587 c
 4413 1567 4419 1533 4424 1508 c
 4429 1468 4434 1375 4444 1331 c
 4444 1311 4449 1277 4454 1252 c
 4459 1212 4464 1119 4474 1075 c
 4474 1055 4479 1021 4485 996 c
 4485 976 4490 931 4494 907 c
 4494 892 4500 863 4505 848 c
 4505 838 4510 818 4514 809 c
 4514 803 4520 788 4525 779 c
 4525 774 4535 759 4545 750 c
 4550 744 4566 735 4575 729 c
 4595 725 4641 725 4666 719 c
 4682 719 4717 715 4737 719 c
 4747 725 4767 750 4777 759 c
 4777 769 4782 784 4787 788 c
 4787 803 4792 828 4798 838 c
 4798 853 4802 868 4807 878 c
 4807 892 4813 916 4818 927 c
 4818 941 4822 976 4827 985 c
 4827 1000 4833 1025 4837 1035 c
 4837 1050 4842 1084 4848 1094 c
 4848 1109 4853 1134 4857 1143 c
 4857 1159 4863 1193 4868 1203 c
 4868 1232 4883 1277 4888 1302 c
 4888 1316 4893 1350 4898 1361 c
 4898 1375 4903 1400 4908 1409 c
 4908 1424 4914 1459 4918 1468 c
 4918 1484 4923 1508 4929 1518 c
 4929 1533 4934 1567 4938 1577 c
 4938 1592 4944 1617 4949 1627 c
 4949 1642 4953 1676 4958 1686 c
 4958 1701 4964 1725 4969 1735 c
 4969 1749 4973 1784 4979 1795 c
 4979 1824 4994 1868 4999 1892 c
 4999 1908 5004 1942 5010 1952 c
 5010 1967 5014 1991 5019 2001 c
 5019 2016 5024 2045 5030 2060 c
 5030 2065 5024 2080 5030 2080 c
 5030 2085 5034 2089 5039 2089 c
 5039 2080 5045 2065 5049 2051 c
 5060 1986 5075 1843 5089 1774 c
 5089 1760 5095 1735 5100 1715 c
 5105 1666 5120 1562 5130 1508 c
 5130 1499 5135 1474 5141 1459 c
 5150 1434 5176 1385 5191 1361 c
 5226 1361 5297 1355 5332 1361 c
 5338 1365 5347 1385 5352 1390 c
 5352 1400 5358 1415 5362 1420 c
 5362 1430 5367 1454 5373 1459 c
 5373 1468 5377 1484 5382 1489 c
 5382 1499 5388 1523 5393 1528 c
 5393 1537 5397 1552 5402 1558 c
 5402 1567 5408 1592 5413 1597 c
 5413 1607 5417 1621 5423 1627 c
 5423 1636 5428 1661 5433 1666 c
 5433 1676 5438 1690 5443 1696 c
 5443 1705 5448 1730 5454 1735 c
 5454 1745 5458 1760 5463 1764 c
 5463 1774 5468 1799 5473 1804 c
 5473 1814 5478 1829 5483 1833 c
 5483 1843 5489 1868 5493 1873 c
 5493 1883 5498 1898 5504 1902 c
 5504 1913 5509 1937 5513 1942 c
 5513 1952 5519 1967 5524 1971 c
 5524 1982 5529 1986 5533 1991 c
 5539 2007 5544 2041 5554 2051 c
 5554 2060 5559 2065 5564 2070 c
 5564 2080 5570 2095 5574 2100 c
 5574 2110 5579 2114 5585 2120 c
 5589 2135 5594 2169 5605 2179 c
 5605 2188 5609 2194 5614 2198 c
 5614 2208 5620 2223 5625 2228 c
 5625 2238 5629 2242 5635 2248 c
 5635 2257 5640 2272 5645 2277 c
 5645 2287 5650 2292 5655 2297 c
 5660 2311 5665 2347 5675 2356 c
 5675 2366 5680 2370 5685 2376 c
 5685 2385 5690 2400 5695 2406 c
 5695 2415 5701 2420 5705 2425 c
 5710 2440 5716 2475 5725 2484 c
 5725 2499 5741 2513 5745 2523 c
 5745 2519 5751 2504 5756 2494 c
 5756 2484 5761 2450 5766 2435 c
 5766 2410 5782 2366 5786 2336 c
 5786 2326 5791 2292 5796 2277 c
 5796 2267 5801 2242 5806 2228 c
 5806 2217 5811 2183 5817 2169 c
 5817 2144 5832 2100 5837 2070 c
 5837 2060 5841 2030 5847 2011 c
 5847 1991 5852 1947 5857 1923 c
 5857 1892 5861 1829 5867 1795 c
 5867 1764 5872 1711 5877 1676 c
 5877 1646 5882 1583 5887 1548 c
 5887 1523 5892 1474 5897 1449 c
 5897 1444 5902 1424 5907 1420 c
 5917 1409 5942 1395 5957 1390 c
 5968 1390 5993 1390 6008 1390 c
 6023 1395 6053 1395 6069 1400 c
 6073 1405 6089 1424 6099 1430 c
 6099 1439 6104 1459 6110 1468 c
 6110 1537 6110 1671 6110 1735 c
 6104 1809 6104 1947 6099 2011 c
 6094 2045 6084 2104 6079 2129 c
 6073 2144 6069 2169 6069 2179 c
 6058 2223 6044 2316 6038 2356 c
 6033 2370 6029 2395 6029 2406 c
 6018 2435 6013 2499 6008 2523 c
 6003 2538 5998 2558 5998 2563 c
 5993 2573 5988 2588 5988 2593 c
 5983 2603 5978 2627 5978 2632 c
 5973 2651 5957 2676 5957 2691 c
 5953 2701 5948 2725 5948 2731 c
 5942 2750 5927 2775 5927 2790 c
 5922 2800 5917 2824 5917 2829 c
 5913 2839 5907 2853 5907 2859 c
 5902 2869 5897 2878 5897 2878 c
 5887 2893 5867 2913 5857 2918 c
 5847 2928 5826 2937 5817 2937 c
 5796 2943 5751 2943 5736 2937 c
 5721 2937 5695 2918 5685 2908 c
 5680 2908 5675 2903 5675 2898 c
 5665 2893 5655 2878 5655 2869 c
 5645 2859 5629 2829 5625 2809 c
 5614 2800 5609 2765 5605 2750 c
 5599 2746 5594 2740 5594 2731 c
 5589 2725 5585 2710 5585 2701 c
 5579 2696 5574 2691 5574 2681 c
 5564 2672 5559 2637 5554 2622 c
 5549 2617 5544 2612 5544 2603 c
 5539 2597 5533 2582 5533 2573 c
 5529 2568 5524 2563 5524 2553 c
 5513 2544 5509 2509 5504 2494 c
 5498 2489 5493 2484 5493 2475 c
 5489 2469 5483 2454 5483 2445 c
 5478 2440 5473 2435 5473 2425 c
 5463 2415 5458 2381 5454 2366 c
 5448 2361 5443 2356 5443 2347 c
 5438 2341 5433 2326 5433 2316 c
 5428 2311 5423 2307 5423 2297 c
 5413 2287 5408 2253 5402 2238 c
 5397 2233 5393 2228 5393 2217 c
 5388 2213 5382 2198 5382 2188 c
 5377 2183 5373 2179 5373 2169 c
 5362 2159 5358 2124 5352 2110 c
 5347 2104 5342 2100 5342 2089 c
 5338 2085 5332 2070 5332 2060 c
 5327 2055 5322 2051 5322 2041 c
 5312 2030 5307 1996 5301 1982 c
 5297 1971 5286 1952 5281 1942 c
 5277 1957 5272 1982 5272 1991 c
 5261 2065 5246 2217 5242 2287 c
 5236 2311 5231 2356 5231 2376 c
 5221 2450 5206 2603 5201 2672 c
 5196 2691 5191 2721 5191 2731 c
 5185 2746 5181 2765 5181 2770 c
 5176 2780 5170 2794 5170 2800 c
 5165 2809 5161 2819 5161 2819 c
 5150 2829 5135 2839 5130 2839 c
 5100 2844 5034 2844 5010 2839 c
 4999 2839 4984 2829 4979 2819 c
 4969 2809 4953 2785 4949 2770 c
 4944 2765 4938 2750 4938 2740 c
 4903 2597 4842 2301 4818 2149 c
 4813 2139 4807 2104 4807 2089 c
 4772 1932 4706 1612 4676 1449 c
 4671 1449 4676 1434 4676 1430 c
 4671 1430 4666 1424 4666 1420 c
 4661 1430 4656 1449 4656 1459 c
 4645 1503 4630 1592 4625 1636 c
 4621 1656 4616 1690 4616 1705 c
 4610 1740 4595 1795 4595 1824 c
 4590 1843 4586 1877 4586 1892 c
 4575 1942 4560 2026 4555 2070 c
 4550 2089 4545 2124 4545 2139 c
 4535 2203 4514 2322 4505 2376 c
 4500 2391 4494 2415 4494 2425 c
 4490 2435 4485 2450 4485 2454 c
 4474 2464 4459 2475 4454 2475 c
 4419 2479 4354 2479 4323 2475 c
 4313 2475 4303 2469 4303 2464 c
 4298 2464 4293 2454 4293 2445 c
 4288 2440 4282 2425 4282 2415 c
 4278 2406 4273 2381 4273 2366 c
 4267 2351 4262 2307 4262 2287 c
 4258 2272 4252 2238 4252 2217 c
 4247 2203 4242 2159 4242 2139 c
 4238 2124 4232 2089 4232 2070 c
 4227 2055 4222 2011 4222 1991 c
 4217 1976 4212 1942 4212 1923 c
 4201 1888 4197 1804 4192 1764 c
 4186 1749 4182 1715 4182 1696 c
 4177 1680 4172 1636 4172 1617 c
 4166 1602 4162 1567 4162 1548 c
 4157 1533 4151 1489 4151 1468 c
 4146 1454 4142 1420 4142 1400 c
 4136 1385 4131 1346 4131 1321 c
 4126 1316 4131 1302 4131 1291 c
 4126 1291 4121 1287 4121 1281 c
 4116 1291 4111 1311 4111 1321 c
 4096 1400 4081 1562 4070 1636 c
 4066 1656 4061 1690 4061 1705 c
 4050 1764 4035 1883 4030 1942 c
 4026 1967 4020 2016 4020 2041 c
 4010 2110 4005 2253 4000 2316 c
 3995 2351 3989 2415 3989 2445 c
 3980 2513 3970 2651 3970 2721 c
 3965 2790 3960 2922 3960 2987 c
 3954 3090 3950 3293 3950 3390 c
 3945 3460 3939 3588 3939 3648 c
 3934 3662 3934 3686 3930 3696 c
 3924 3707 3904 3717 3899 3717 c
 3879 3726 3844 3726 3829 3726 c
 3814 3730 3788 3730 3778 3726 c
 3763 3726 3742 3707 3738 3696 c
 3733 3692 3728 3677 3728 3667 c
 3722 3657 3718 3633 3718 3618 c
 3707 3579 3692 3489 3687 3440 c
 3682 3426 3677 3390 3677 3371 c
 3672 3342 3657 3287 3657 3253 c
 3652 3239 3647 3203 3647 3184 c
 3642 3155 3626 3100 3626 3065 c
 3622 3050 3617 3016 3617 2997 c
 3611 2968 3597 2913 3597 2878 c
 3591 2863 3586 2829 3586 2809 c
 3566 2696 3536 2460 3526 2336 c
 3521 2307 3516 2238 3516 2198 c
 3506 2045 3490 1735 3486 1577 c
 3480 1558 3486 1503 3486 1478 c
 3480 1478 3475 1474 3475 1468 c
 3470 1478 3466 1493 3466 1499 c
 3460 1514 3455 1548 3455 1558 c
 3450 1587 3435 1631 3435 1656 c
 3430 1671 3425 1705 3425 1715 c
 3420 1745 3405 1789 3405 1814 c
 3400 1829 3394 1863 3394 1873 c
 3390 1888 3385 1913 3385 1923 c
 3379 1937 3374 1971 3374 1982 c
 3370 2011 3354 2055 3354 2080 c
 3349 2095 3344 2129 3344 2139 c
 3339 2169 3324 2213 3324 2238 c
 3314 2267 3304 2326 3304 2356 c
 3289 2425 3274 2568 3263 2632 c
 3258 2651 3254 2676 3254 2691 c
 3238 2760 3218 2898 3213 2968 c
 3208 3002 3203 3065 3203 3096 c
 3198 3144 3193 3248 3193 3293 c
 3188 3322 3182 3376 3182 3401 c
 3178 3415 3173 3436 3173 3440 c
 3167 3450 3158 3465 3152 3470 c
 3142 3480 3127 3489 3122 3489 c
 3092 3499 3026 3514 3001 3509 c
 2991 3509 2976 3489 2970 3480 c
 2966 3474 2961 3460 2961 3450 c
 2956 3440 2950 3415 2950 3401 c
 2946 3376 2941 3317 2941 3283 c
 2935 3239 2930 3134 2930 3086 c
 2926 3041 2920 2947 2920 2898 c
 2915 2853 2910 2750 2910 2701 c
 2905 2657 2900 2563 2900 2513 c
 2895 2469 2891 2366 2891 2316 c
 2885 2272 2880 2179 2880 2129 c
 2875 2085 2870 1986 2870 1932 c
 2865 1913 2870 1868 2870 1843 c
 2865 1843 2860 1839 2860 1833 c
 2854 1854 2850 1888 2850 1902 c
 2825 2169 2779 2706 2759 2968 c
 2754 2987 2749 3021 2749 3036 c
 2744 3050 2738 3071 2738 3075 c
 2734 3086 2729 3096 2729 3096 c
 2718 3105 2698 3115 2688 3115 c
 2668 3120 2622 3120 2607 3115 c
 2592 3115 2572 3105 2567 3096 c
 2563 3096 2557 3086 2557 3075 c
 2552 3071 2547 3056 2547 3046 c
 2542 3021 2537 2962 2537 2928 c
 2532 2884 2526 2785 2526 2731 c
 2522 2681 2517 2578 2517 2523 c
 2511 2475 2506 2381 2506 2326 c
 2502 2277 2497 2173 2497 2120 c
 2491 2070 2486 1976 2486 1923 c
 2482 1902 2486 1848 2486 1824 c
 2482 1824 2476 1818 2476 1814 c
 2471 1848 2467 1913 2467 1942 c
 2461 2001 2456 2120 2456 2179 c
 2451 2242 2446 2366 2446 2425 c
 2441 2489 2436 2607 2436 2662 c
 2431 2706 2431 2790 2426 2829 c
 2421 2844 2410 2863 2406 2869 c
 2401 2874 2390 2878 2386 2878 c
 2355 2884 2290 2884 2264 2878 c
 2255 2878 2239 2869 2235 2859 c
 2229 2853 2224 2839 2224 2829 c
 2219 2824 2214 2804 2214 2790 c
 2209 2775 2204 2740 2204 2721 c
 2194 2676 2189 2573 2184 2523 c
 2178 2504 2174 2460 2174 2435 c
 2163 2366 2148 2213 2143 2139 c
 2139 2120 2133 2075 2133 2051 c
 2123 2007 2113 1908 2113 1854 c
 2108 1848 2113 1824 2113 1814 c
 2108 1814 2103 1809 2103 1804 c
 2098 1824 2093 1858 2093 1873 c
 2082 1937 2073 2065 2073 2129 c
 2067 2164 2062 2238 2062 2267 c
 2058 2336 2047 2464 2043 2523 c
 2038 2548 2032 2593 2032 2612 c
 2027 2627 2023 2647 2023 2651 c
 2017 2662 2012 2676 2012 2681 c
 2002 2691 1987 2710 1982 2710 c
 1966 2716 1931 2716 1922 2710 c
 1901 2710 1866 2706 1850 2701 c
 1835 2701 1815 2691 1811 2681 c
 1805 2676 1800 2662 1800 2651 c
 1795 2647 1791 2627 1791 2612 c
 1785 2469 1785 2179 1791 2030 c
 1791 1888 1795 1602 1800 1459 c
 1795 1459 1791 1454 1791 1449 c
 1785 1459 1780 1474 1780 1478 c
 1770 1503 1765 1558 1760 1577 c
 1754 1592 1750 1607 1750 1617 c
 1734 1666 1719 1770 1710 1814 c
 1704 1829 1699 1843 1699 1854 c
 1684 1902 1669 2007 1659 2051 c
 1654 2065 1649 2080 1649 2089 c
 1644 2104 1638 2129 1638 2139 c
 1634 2154 1629 2173 1629 2179 c
 1623 2188 1619 2198 1619 2198 c
 1608 2208 1588 2217 1579 2217 c
 1533 2223 1447 2228 1407 2217 c
 1397 2217 1382 2183 1376 2169 c
 1371 2164 1367 2144 1367 2129 c
 1361 2036 1356 1843 1356 1745 c
 1351 1567 1347 1203 1347 1015 c
 1341 927 1347 744 1347 651 c
 1341 651 1336 645 1336 641 c
 1331 645 1326 656 1326 660 c
 1321 670 1316 695 1316 700 c
 1310 719 1295 744 1295 759 c
 1291 769 1286 794 1286 798 c
 1281 818 1266 843 1266 857 c
 1260 868 1255 892 1255 897 c
 1251 916 1235 941 1235 956 c
 1190 1114 1109 1430 1074 1587 c
 1069 1602 1063 1636 1063 1646 c
 1059 1676 1043 1720 1043 1745 c
 1039 1760 1033 1795 1033 1804 c
 1028 1833 1013 1877 1013 1902 c
 1008 1917 1003 1952 1003 1961 c
 998 1991 982 2036 982 2060 c
 978 2075 973 2104 973 2120 c
 967 2194 963 2341 963 2415 c
 958 2523 953 2746 953 2849 c
 947 2859 943 2874 943 2878 c
 932 2888 917 2908 912 2908 c
 897 2918 867 2918 851 2918 c
 786 2928 660 2937 599 2937 c
 595 2943 579 2933 579 2928 c
 564 2922 544 2908 539 2898 c
 534 2898 529 2888 529 2878 c
 523 2874 519 2859 519 2849 c
 514 2844 509 2819 509 2809 c
 503 2804 499 2790 499 2780 c
 494 2765 488 2731 488 2710 c
 473 2607 453 2391 448 2277 c
 443 2223 438 2110 438 2051 c
 433 1971 428 1804 428 1715 c
 423 1651 423 1508 428 1439 c
 428 1331 438 1114 448 1006 c
 448 971 453 902 458 868 c
 458 857 463 843 468 828 c
 468 818 473 794 479 779 c
 479 769 483 754 488 739 c
 488 729 494 704 499 690 c
 499 681 503 666 509 651 c
 509 641 514 616 519 601 c
 519 591 523 576 529 562 c
 529 552 534 528 539 513 c
 539 503 544 483 549 473 c
 549 469 554 454 559 444 c
 554 444 549 439 549 434 c
 544 444 529 458 529 463 c
 514 483 499 528 488 542 c
 483 552 468 567 468 572 c
 453 597 428 651 418 670 c
 413 681 398 695 398 700 c
 383 725 357 774 347 798 c
 332 838 307 912 297 947 c
 291 956 287 962 287 966 c
 271 1006 247 1080 236 1114 c
 226 1143 211 1203 206 1232 c
 201 1252 195 1287 195 1302 c
 191 1316 181 1336 175 1340 c
 171 1346 160 1350 155 1350 c
 125 1355 70 1355 44 1350 c
 35 1350 14 1340 14 1331 c
 4 1321 4 1296 4 1281 c
 0 1267 4 1232 4 1212 c
 0.000 0.000 0.000 0.200 cmyk
ef

np
 1276 1991 m
 1276 1991 1983 1991 1983 1991 c
 1983 1991 1983 1284 1983 1284 c
 1983 1284 1276 1284 1276 1284 c
 1276 1284 1276 1991 1276 1991 c
 0.000 0.000 0.000 0.000 cmyk
gs
ef

gr
 0.000 0.000 0.000 1.000 cmyk
 2 ln

np
 2079 1991 m
 2079 1991 2786 1991 2786 1991 c
 2786 1991 2786 1284 2786 1284 c
 2786 1284 2079 1284 2079 1284 c
 2079 1284 2079 1991 2079 1991 c
 0.000 0.000 0.000 0.000 cmyk
gs
ef

gr
 0.000 0.000 0.000 1.000 cmyk
 2 ln

np
 2882 1991 m
 2882 1991 3589 1991 3589 1991 c
 3589 1991 3589 1284 3589 1284 c
 3589 1284 2882 1284 2882 1284 c
 2882 1284 2882 1991 2882 1991 c
 0.000 0.000 0.000 0.000 cmyk
gs
ef

gr
 0.000 0.000 0.000 1.000 cmyk
 2 ln

np
 3685 1991 m
 3685 1991 4392 1991 4392 1991 c
 4392 1991 4392 1284 4392 1284 c
 4392 1284 3685 1284 3685 1284 c
 3685 1284 3685 1991 3685 1991 c
 0.000 0.000 0.000 0.000 cmyk
gs
ef

gr
 0.000 0.000 0.000 1.000 cmyk
 2 ln

np
 4488 1991 m
 4488 1991 5195 1991 5195 1991 c
 5195 1991 5195 1284 5195 1284 c
 5195 1284 4488 1284 4488 1284 c
 4488 1284 4488 1991 4488 1991 c
 0.000 0.000 0.000 0.000 cmyk
gs
ef

gr
 0.000 0.000 0.000 1.000 cmyk
 2 ln

np
 5291 1991 m
 5291 1991 5998 1991 5998 1991 c
 5998 1991 5998 1284 5998 1284 c
 5998 1284 5291 1284 5291 1284 c
 5291 1284 5291 1991 5291 1991 c
 0.000 0.000 0.000 0.000 cmyk
gs
ef

gr
 0.000 0.000 0.000 1.000 cmyk
 2 ln

np
 1276 1188 m
 1276 1188 1983 1188 1983 1188 c
 1983 1188 1983 481 1983 481 c
 1983 481 1276 481 1276 481 c
 1276 481 1276 1188 1276 1188 c
 0.000 0.000 0.000 0.000 cmyk
gs
ef

gr
 0.000 0.000 0.000 1.000 cmyk
 2 ln

np
 2079 1188 m
 2079 1188 2786 1188 2786 1188 c
 2786 1188 2786 481 2786 481 c
 2786 481 2079 481 2079 481 c
 2079 481 2079 1188 2079 1188 c
 0.000 0.000 0.000 0.000 cmyk
gs
ef

gr
 0.000 0.000 0.000 1.000 cmyk
 2 ln

np
 2882 1188 m
 2882 1188 3589 1188 3589 1188 c
 3589 1188 3589 481 3589 481 c
 3589 481 2882 481 2882 481 c
 2882 481 2882 1188 2882 1188 c
 0.000 0.000 0.000 0.000 cmyk
gs
ef

gr
 0.000 0.000 0.000 1.000 cmyk
 2 ln

np
 3685 1188 m
 3685 1188 4392 1188 4392 1188 c
 4392 1188 4392 481 4392 481 c
 4392 481 3685 481 3685 481 c
 3685 481 3685 1188 3685 1188 c
 0.000 0.000 0.000 0.000 cmyk
gs
ef

gr
 0.000 0.000 0.000 1.000 cmyk
 2 ln

np
 4488 1188 m
 4488 1188 5195 1188 5195 1188 c
 5195 1188 5195 481 5195 481 c
 5195 481 4488 481 4488 481 c
 4488 481 4488 1188 4488 1188 c
 0.000 0.000 0.000 0.000 cmyk
gs
ef

gr
 0.000 0.000 0.000 1.000 cmyk
 2 ln

np
 5291 1188 m
 5291 1188 5998 1188 5998 1188 c
 5998 1188 5998 481 5998 481 c
 5998 481 5291 481 5291 481 c
 5291 481 5291 1188 5291 1188 c
 0.000 0.000 0.000 0.000 cmyk
gs
ef

gr
 0.000 0.000 0.000 1.000 cmyk
 2 ln

np
 1675 1592 m
 1598 1785 1598 1785 1598 1785 c
 1520 1592 1520 1592 1520 1592 c
 1675 1592 1675 1592 1675 1592 c
 1854 1430 m
 1854 1418 1854 1418 1854 1418 c
 1677 1418 1677 1418 1677 1418 c
 1677 1430 1677 1430 1677 1430 c
 1678 1430 1719 1432 1725 1440 c
 1733 1452 1727 1466 1722 1479 c
 1689 1563 1689 1563 1689 1563 c
 1506 1563 1506 1563 1506 1563 c
 1482 1512 1482 1512 1482 1512 c
 1467 1481 1459 1452 1465 1441 c
 1474 1426 1513 1430 1513 1430 c
 1513 1418 1513 1418 1513 1418 c
 1379 1418 1379 1418 1379 1418 c
 1379 1430 1379 1430 1379 1430 c
 1391 1431 1401 1434 1411 1442 c
 1427 1454 1440 1480 1451 1506 c
 1609 1879 1609 1879 1609 1879 c
 1637 1879 1637 1879 1637 1879 c
 1792 1488 1792 1488 1792 1488 c
 1792 1488 1807 1442 1831 1434 c
 1839 1431 1853 1430 1854 1430 c
 1854 1430 1854 1430 1854 1430 c
 0.000 0.000 0.000 1.000 cmyk
ef

np
 3346 1831 m
 3330 1842 3305 1842 3294 1842 c
 3153 1842 3153 1842 3153 1842 c
 3153 1668 3153 1668 3153 1668 c
 3251 1668 3251 1668 3251 1668 c
 3278 1668 3301 1668 3318 1688 c
 3329 1702 3335 1714 3335 1732 c
 3349 1732 3349 1732 3349 1732 c
 3349 1573 3349 1573 3349 1573 c
 3335 1573 3335 1573 3335 1573 c
 3335 1592 3332 1608 3318 1620 c
 3298 1636 3278 1640 3251 1640 c
 3153 1640 3153 1640 3153 1640 c
 3153 1446 3153 1446 3153 1446 c
 3275 1446 3275 1446 3275 1446 c
 3314 1446 3342 1452 3370 1479 c
 3387 1495 3397 1512 3403 1535 c
 3424 1535 3424 1535 3424 1535 c
 3391 1418 3391 1418 3391 1418 c
 3022 1418 3022 1418 3022 1418 c
 3022 1430 3022 1430 3022 1430 c
 3022 1430 3055 1428 3068 1446 c
 3074 1455 3078 1463 3078 1474 c
 3078 1814 3078 1814 3078 1814 c
 3078 1825 3074 1833 3068 1842 c
 3055 1859 3022 1858 3022 1858 c
 3022 1870 3022 1870 3022 1870 c
 3384 1870 3384 1870 3384 1870 c
 3384 1771 3384 1771 3384 1771 c
 3372 1771 3372 1771 3372 1771 c
 3373 1785 3366 1816 3346 1831 c
 3346 1831 3346 1831 3346 1831 c
 0.000 0.000 0.000 1.000 cmyk
ef

%% Het koppelteken tussen A en E
np
 2235 1583 m
 2604 1583 2604 1583 2604 1583 c
 2604 1541 2604 1541 2604 1541 c
 2235 1541 2235 1541 2235 1541 c
 2235 1583 2235 1583 2235 1583 c
 0.000 0.000 0.000 1.000 cmyk
ef

np
 3951 1447 m
 3975 1447 3999 1430 4031 1430 c
 4097 1430 4129 1453 4129 1521 c
 4129 1627 3970 1621 3970 1691 c
 3970 1717 3996 1735 4022 1735 c
 4089 1735 4101 1654 4099 1649 c
 4109 1649 4109 1649 4109 1649 c
 4109 1743 4109 1743 4109 1743 c
 4099 1743 4099 1743 4099 1743 c
 4099 1743 4100 1733 4087 1733 c
 4059 1733 4057 1750 4022 1750 c
 3974 1751 3930 1715 3930 1667 c
 3929 1565 4083 1571 4083 1493 c
 4083 1461 4055 1444 4027 1445 c
 3941 1447 3937 1540 3937 1540 c
 3928 1540 3928 1540 3928 1540 c
 3928 1437 3928 1437 3928 1437 c
 3937 1437 3937 1437 3937 1437 c
 3937 1437 3939 1447 3951 1447 c
 3951 1447 3951 1447 3951 1447 c
 0.000 0.000 0.000 1.000 cmyk
ef

np
 4875 1668 m
 4894 1684 4908 1695 4931 1704 c
 4948 1711 4982 1712 4982 1712 c
 4982 1724 4982 1724 4982 1724 c
 4841 1724 4841 1724 4841 1724 c
 4841 1712 4841 1712 4841 1712 c
 4841 1712 4871 1713 4873 1708 c
 4876 1700 4863 1685 4853 1676 c
 4762 1597 4762 1597 4762 1597 c
 4762 1879 4762 1879 4762 1879 c
 4654 1851 4654 1851 4654 1851 c
 4654 1837 4654 1837 4654 1837 c
 4654 1838 4695 1842 4702 1835 c
 4706 1830 4706 1818 4706 1808 c
 4706 1472 4706 1472 4706 1472 c
 4706 1460 4706 1450 4698 1442 c
 4689 1433 4654 1430 4654 1430 c
 4654 1418 4654 1418 4654 1418 c
 4813 1418 4813 1418 4813 1418 c
 4813 1430 4813 1430 4813 1430 c
 4813 1430 4778 1430 4768 1442 c
 4762 1451 4762 1460 4762 1472 c
 4762 1585 4762 1585 4762 1585 c
 4862 1456 4862 1456 4862 1456 c
 4867 1450 4876 1440 4871 1434 c
 4868 1429 4846 1430 4846 1430 c
 4846 1418 4846 1418 4846 1418 c
 4995 1418 4995 1418 4995 1418 c
 4995 1430 4995 1430 4995 1430 c
 4994 1430 4982 1430 4967 1434 c
 4943 1440 4932 1458 4917 1477 c
 4811 1609 4811 1609 4811 1609 c
 4875 1668 4875 1668 4875 1668 c
 0.000 0.000 0.000 1.000 cmyk
ef

np
 5652 1616 m
 5730 1430 5730 1430 5730 1430 c
 5734 1430 5734 1430 5734 1430 c
 5846 1695 5846 1695 5846 1695 c
 5846 1696 5857 1719 5866 1728 c
 5867 1729 5873 1731 5874 1731 c
 5874 1743 5874 1743 5874 1743 c
 5789 1743 5789 1743 5789 1743 c
 5789 1731 5789 1731 5789 1731 c
 5789 1731 5809 1734 5815 1727 c
 5822 1718 5814 1695 5808 1677 c
 5748 1523 5748 1523 5748 1523 c
 5680 1691 5680 1691 5680 1691 c
 5676 1703 5672 1716 5680 1727 c
 5685 1733 5711 1731 5711 1731 c
 5711 1743 5711 1743 5711 1743 c
 5578 1743 5578 1743 5578 1743 c
 5578 1731 5578 1731 5578 1731 c
 5578 1731 5594 1732 5600 1729 c
 5608 1724 5619 1706 5624 1691 c
 5638 1653 5638 1653 5638 1653 c
 5578 1521 5578 1521 5578 1521 c
 5514 1673 5514 1673 5514 1673 c
 5506 1692 5496 1721 5508 1729 c
 5511 1730 5535 1731 5535 1731 c
 5535 1743 5535 1743 5535 1743 c
 5413 1743 5413 1743 5413 1743 c
 5413 1731 5413 1731 5413 1731 c
 5413 1731 5425 1731 5431 1729 c
 5435 1727 5444 1708 5448 1695 c
 5556 1430 5556 1430 5556 1430 c
 5561 1430 5561 1430 5561 1430 c
 5652 1616 5652 1616 5652 1616 c
 0.000 0.000 0.000 1.000 cmyk
ef

np
 1479 720 m
 1479 769 1516 797 1559 819 c
 1592 836 1641 853 1648 854 c
 1648 854 1656 954 1601 952 c
 1564 951 1552 940 1554 918 c
 1554 900 1552 861 1524 861 c
 1500 861 1490 876 1490 894 c
 1490 937 1532 967 1610 967 c
 1685 967 1704 938 1704 880 c
 1704 710 1704 710 1704 710 c
 1704 694 1710 684 1723 684 c
 1737 684 1756 700 1756 700 c
 1756 682 1756 682 1756 682 c
 1753 671 1726 647 1700 647 c
 1674 647 1652 674 1652 700 c
 1652 699 1610 647 1575 647 c
 1523 647 1479 675 1479 720 c
 1479 720 1479 720 1479 720 c
 1540 748 m
 1540 710 1565 686 1589 686 c
 1627 686 1648 714 1648 715 c
 1648 833 1648 833 1648 833 c
 1642 835 1540 811 1540 748 c
 1540 748 1540 748 1540 748 c
 0.000 0.000 0.000 1.000 cmyk
ef

np
 2503 858 m
 2503 733 2503 733 2503 733 c
 2493 703 2472 683 2441 677 c
 2377 664 2348 753 2349 818 c
 2349 877 2379 941 2433 945 c
 2475 947 2503 887 2503 858 c
 2503 858 2503 858 2503 858 c
 2608 681 m
 2608 691 2608 691 2608 691 c
 2608 691 2577 684 2569 695 c
 2563 703 2560 713 2560 723 c
 2560 1114 2560 1114 2560 1114 c
 2457 1086 2457 1086 2457 1086 c
 2457 1072 2457 1072 2457 1072 c
 2457 1073 2493 1080 2500 1073 c
 2505 1067 2503 1057 2503 1047 c
 2503 939 2503 939 2503 939 c
 2503 939 2481 966 2433 966 c
 2341 966 2288 889 2288 794 c
 2288 719 2339 641 2415 646 c
 2453 648 2480 663 2503 693 c
 2503 646 2503 646 2503 646 c
 2608 681 2608 681 2608 681 c
 0.000 0.000 0.000 1.000 cmyk
ef

np
 3268 907 m
 3286 907 3286 885 3311 885 c
 3328 885 3341 893 3341 913 c
 3341 932 3324 949 3304 949 c
 3262 949 3224 889 3224 889 c
 3224 949 3224 949 3224 949 c
 3116 921 3116 921 3116 921 c
 3116 907 3116 907 3116 907 c
 3116 909 3157 915 3162 907 c
 3165 901 3166 889 3166 879 c
 3166 689 3166 689 3166 689 c
 3166 677 3166 667 3158 659 c
 3149 650 3114 647 3114 647 c
 3114 635 3114 635 3114 635 c
 3276 635 3276 635 3276 635 c
 3276 647 3276 647 3276 647 c
 3276 647 3240 647 3230 659 c
 3224 668 3224 677 3224 689 c
 3224 857 3224 857 3224 857 c
 3224 881 3256 907 3268 907 c
 3268 907 3268 907 3268 907 c
 0.000 0.000 0.000 1.000 cmyk
ef

np
 3897 719 m
 3897 768 3933 796 3977 818 c
 4010 835 4059 852 4065 853 c
 4066 853 4074 953 4019 951 c
 3982 950 3970 939 3971 917 c
 3972 899 3969 860 3941 860 c
 3917 860 3908 875 3908 893 c
 3908 936 3950 966 4027 966 c
 4103 966 4122 937 4122 879 c
 4122 709 4122 709 4122 709 c
 4122 693 4127 683 4141 683 c
 4155 683 4174 699 4174 699 c
 4174 681 4174 681 4174 681 c
 4171 670 4143 646 4118 646 c
 4091 646 4070 673 4070 699 c
 4070 698 4028 646 3993 646 c
 3941 646 3897 674 3897 719 c
 3897 719 3897 719 3897 719 c
 3957 747 m
 3957 709 3983 685 4007 685 c
 4045 685 4065 713 4065 714 c
 4065 832 4065 832 4065 832 c
 4060 834 3958 810 3957 747 c
 3957 747 3957 747 3957 747 c
 0.000 0.000 0.000 1.000 cmyk
ef

np
 4716 720 m
 4716 769 4753 797 4796 819 c
 4830 836 4878 853 4885 854 c
 4886 854 4894 954 4838 952 c
 4802 951 4790 940 4791 918 c
 4792 900 4789 861 4761 861 c
 4737 861 4728 876 4728 894 c
 4728 937 4770 967 4847 967 c
 4922 967 4942 938 4942 880 c
 4942 710 4942 710 4942 710 c
 4942 694 4947 684 4960 684 c
 4974 684 4994 700 4994 700 c
 4994 682 4994 682 4994 682 c
 4990 671 4963 647 4938 647 c
 4911 647 4890 674 4890 700 c
 4890 699 4848 647 4812 647 c
 4760 647 4716 675 4716 720 c
 4716 720 4716 720 4716 720 c
 4777 748 m
 4777 710 4802 686 4826 686 c
 4864 686 4885 714 4885 715 c
 4885 833 4885 833 4885 833 c
 4880 835 4778 811 4777 748 c
 4777 748 4777 748 4777 748 c
 0.000 0.000 0.000 1.000 cmyk
ef

np
 5652 646 m
 5700 644 5732 669 5739 699 c
 5732 705 5732 705 5732 705 c
 5724 688 5706 682 5686 681 c
 5662 681 5658 720 5658 747 c
 5658 935 5658 935 5658 935 c
 5724 935 5724 935 5724 935 c
 5724 959 5724 959 5724 959 c
 5658 959 5658 959 5658 959 c
 5658 1041 5658 1041 5658 1041 c
 5619 997 5619 997 5619 997 c
 5619 997 5600 978 5588 967 c
 5579 959 5550 947 5557 938 c
 5558 936 5565 935 5570 935 c
 5598 935 5598 935 5598 935 c
 5598 723 5598 723 5598 723 c
 5598 687 5618 647 5652 646 c
 5652 646 5652 646 5652 646 c
 0.000 0.000 0.000 1.000 cmyk
ef

%showpage
end
restore
